<svg width="50" height="50" viewBox="0 0 50 50" fill="none" xmlns="http://www.w3.org/2000/svg">
<path fill-rule="evenodd" clip-rule="evenodd" d="M1.78125 1H48.6562C48.8634 1 49.0622 1.08231 49.2087 1.22882C49.3552 1.37534 49.4375 1.57405 49.4375 1.78125V4.90625C49.4375 5.11345 49.3552 5.31216 49.2087 5.45868C49.0622 5.60519 48.8634 5.6875 48.6562 5.6875H38.5V6.76719L41.1508 8.09375C42.8642 8.61034 44.3665 9.66347 45.4364 11.0981C46.5063 12.5327 47.0873 14.2729 47.0938 16.0625V18.1875C47.0938 18.3947 47.0114 18.5934 46.8649 18.7399C46.7184 18.8864 46.5197 18.9688 46.3125 18.9688H43.9688V25.2188C43.9688 25.426 43.8864 25.6247 43.7399 25.7712C43.5934 25.9177 43.3947 26 43.1875 26H7.25C7.0428 26 6.84409 25.9177 6.69757 25.7712C6.55106 25.6247 6.46875 25.426 6.46875 25.2188V18.9688H4.125C3.9178 18.9688 3.71909 18.8864 3.57257 18.7399C3.42606 18.5934 3.34375 18.3947 3.34375 18.1875V16.0625C3.35073 14.2729 3.93219 12.5328 5.00251 11.0984C6.07283 9.66413 7.57544 8.61141 9.28906 8.09531L11.9375 6.76719V5.6875H1.78125C1.57405 5.6875 1.37534 5.60519 1.22882 5.45868C1.08231 5.31216 1 5.11345 1 4.90625V1.78125C1 1.57405 1.08231 1.37534 1.22882 1.22882C1.37534 1.08231 1.57405 1 1.78125 1ZM18.1875 6.76719V5.6875H13.5V6.76719L15.8438 7.93906L18.1875 6.76719ZM40.0133 9.27109L37.7188 8.12344L36.4711 8.74766C37.4233 9.26497 38.2655 9.96287 38.9508 10.8023C39.2234 10.6336 39.4584 10.4105 39.6411 10.1471C39.8239 9.8837 39.9506 9.58552 40.0133 9.27109ZM30.2211 8.74766C31.1733 9.26497 32.0155 9.96287 32.7008 10.8023C32.9739 10.6337 33.2094 10.4107 33.3926 10.1471C33.5758 9.88353 33.7027 9.58507 33.7656 9.27031L31.4711 8.12266L30.2211 8.74766ZM23.9711 8.74766C24.9233 9.26497 25.7655 9.96287 26.4508 10.8023C26.7239 10.6337 26.9594 10.4107 27.1426 10.1471C27.3258 9.88353 27.4527 9.58507 27.5156 9.27031L25.2211 8.12266L23.9711 8.74766ZM17.7211 8.74766C18.6733 9.26497 19.5155 9.96287 20.2008 10.8023C20.4739 10.6337 20.7094 10.4107 20.8926 10.1471C21.0758 9.88353 21.2027 9.58507 21.2656 9.27031L18.9711 8.12266L17.7211 8.74766ZM14.2035 10.6228C14.6224 10.2799 14.9096 9.80254 15.0164 9.27188L12.7188 8.12344L10.4211 9.27188C10.5279 9.80254 10.8151 10.2799 11.234 10.6228C11.6528 10.9657 12.1774 11.1531 12.7188 11.1531C13.2601 11.1531 13.7847 10.9657 14.2035 10.6228ZM28.3438 7.93906L30.6875 6.76719V5.6875H26V6.76719L28.3438 7.93906ZM22.0938 7.93906L24.4375 6.76719V5.6875H19.75V6.76719L22.0938 7.93906ZM17.4062 24.4375V15.0625H18.9688V17.4062H20.5312V16.0625C20.5268 14.7491 20.1417 13.4651 19.4224 12.3661C18.7032 11.267 17.6808 10.4001 16.4789 9.87031C16.2482 10.69 15.756 11.4118 15.0772 11.9259C14.3984 12.44 13.5703 12.7183 12.7188 12.7183C11.8672 12.7183 11.0391 12.44 10.3603 11.9259C9.68149 11.4118 9.18929 10.69 8.95859 9.87031C7.75675 10.4001 6.73429 11.267 6.01506 12.3661C5.29583 13.4651 4.91068 14.7491 4.90625 16.0625V17.4062H6.46875V15.0625H8.03125V24.4375H17.4062ZM23.6562 24.4375V15.0625H25.2188V17.4062H26.7812V16.0625C26.7774 14.7494 26.393 13.4657 25.6746 12.3665C24.9562 11.2674 23.9347 10.4001 22.7336 9.86953C22.473 10.7888 21.8839 11.5803 21.0781 12.0938C21.7441 13.3106 22.0934 14.6753 22.0938 16.0625V18.1875C22.0938 18.3947 22.0114 18.5934 21.8649 18.7399C21.7184 18.8864 21.5197 18.9688 21.3125 18.9688H18.9688V24.4375H23.6562ZM29.9062 24.4375V15.0625H31.4688V17.4062H33.0312V16.0625C33.0274 14.7494 32.643 13.4657 31.9246 12.3665C31.2062 11.2674 30.1847 10.4001 28.9836 9.86953C28.723 10.7888 28.1339 11.5803 27.3281 12.0938C27.9941 13.3106 28.3434 14.6753 28.3438 16.0625V18.1875C28.3438 18.3947 28.2614 18.5934 28.1149 18.7399C27.9684 18.8864 27.7697 18.9688 27.5625 18.9688H25.2188V24.4375H29.9062ZM36.1562 24.4375V15.0625H37.7188V17.4062H39.2812V16.0625C39.2774 14.7494 38.893 13.4657 38.1746 12.3665C37.4562 11.2674 36.4347 10.4001 35.2336 9.86953C34.973 10.7888 34.3839 11.5803 33.5781 12.0938C34.2441 13.3106 34.5934 14.6753 34.5938 16.0625V18.1875C34.5938 18.3947 34.5114 18.5934 34.3649 18.7399C34.2184 18.8864 34.0197 18.9688 33.8125 18.9688H31.4688V24.4375H36.1562ZM45.5312 17.4062V16.0625C45.5274 14.7494 45.143 13.4657 44.4246 12.3665C43.7062 11.2674 42.6847 10.4001 41.4836 9.86953C41.223 10.7888 40.6339 11.5803 39.8281 12.0938C40.4941 13.3106 40.8434 14.6753 40.8438 16.0625V18.1875C40.8438 18.3947 40.7614 18.5934 40.6149 18.7399C40.4684 18.8864 40.2697 18.9688 40.0625 18.9688H37.7188V24.4375H42.4062V15.0625H43.9688V17.4062H45.5312ZM34.5938 7.93906L36.9375 6.76719V5.6875H32.25V6.76719L34.5938 7.93906ZM2.5625 4.125H47.875V2.5625H2.5625V4.125ZM1.22882 27.7913C1.37534 27.6448 1.57405 27.5625 1.78125 27.5625H48.6562C48.8634 27.5625 49.0622 27.6448 49.2087 27.7913C49.3552 27.9378 49.4375 28.1365 49.4375 28.3438V31.4688C49.4375 31.676 49.3552 31.8747 49.2087 32.0212C49.0622 32.1677 48.8634 32.25 48.6562 32.25H36.9375V34.1758L41.0781 36.9375H41.625C41.8322 36.9375 42.0309 37.0198 42.1774 37.1663C42.3239 37.3128 42.4062 37.5116 42.4062 37.7188V48.6562C42.4062 48.8634 42.3239 49.0622 42.1774 49.2087C42.0309 49.3552 41.8322 49.4375 41.625 49.4375H38.5C38.3471 49.4375 38.1976 49.3926 38.07 49.3085C37.9424 49.2243 37.8423 49.1046 37.782 48.9641L36.9375 46.9938V48.6562C36.9375 48.8634 36.8552 49.0622 36.7087 49.2087C36.5622 49.3552 36.3634 49.4375 36.1562 49.4375H33.0312C32.8784 49.4375 32.7289 49.3926 32.6013 49.3085C32.4736 49.2243 32.3735 49.1046 32.3133 48.9641L31.4688 46.9938V48.6562C31.4688 48.8634 31.3864 49.0622 31.2399 49.2087C31.0934 49.3552 30.8947 49.4375 30.6875 49.4375H27.5625C27.4096 49.4375 27.2601 49.3926 27.1325 49.3085C27.0049 49.2243 26.9048 49.1046 26.8445 48.9641L26 46.9938V48.6562C26 48.8634 25.9177 49.0622 25.7712 49.2087C25.6247 49.3552 25.426 49.4375 25.2188 49.4375H22.0938C21.9409 49.4375 21.7914 49.3926 21.6638 49.3085C21.5361 49.2243 21.436 49.1046 21.3758 48.9641L20.5312 46.9938V48.6562C20.5312 48.8634 20.4489 49.0622 20.3024 49.2087C20.1559 49.3552 19.9572 49.4375 19.75 49.4375H16.625C16.4718 49.4372 16.322 49.3919 16.1944 49.3072C16.0667 49.2224 15.9668 49.102 15.907 48.9609L14.4281 45.5117L13.4703 48.8711C13.4236 49.0344 13.325 49.178 13.1894 49.2802C13.0538 49.3824 12.8886 49.4376 12.7188 49.4375H8.8125C8.6053 49.4375 8.40659 49.3552 8.26007 49.2087C8.11356 49.0622 8.03125 48.8634 8.03125 48.6562V37.7188C8.03125 37.5116 8.11356 37.3128 8.26007 37.1663C8.40659 37.0198 8.6053 36.9375 8.8125 36.9375H9.35938L13.5 34.1758V32.25H1.78125C1.57405 32.25 1.37534 32.1677 1.22882 32.0212C1.08231 31.8747 1 31.676 1 31.4688V28.3438C1 28.1365 1.08231 27.9378 1.22882 27.7913ZM18.9688 34.1758V32.25H15.0625V34.1758L17.0156 35.4781L18.9688 34.1758ZM19.2031 36.9375H19.75H21.8594L19.75 35.5312L18.4219 36.4164L19.2031 36.9375ZM24.6719 36.9375H25.2188H27.3281L25.2188 35.5312L23.8906 36.4164L24.6719 36.9375ZM30.1406 36.9375H30.6875H32.7969L30.6875 35.5312L29.3594 36.4164L30.1406 36.9375ZM27.9531 35.4781L29.9062 34.1758V32.25H26V34.1758L27.9531 35.4781ZM22.4844 35.4781L24.4375 34.1758V32.25H20.5312V34.1758L22.4844 35.4781ZM16.3906 36.9375L14.2812 35.5312L12.1719 36.9375H16.3906ZM17.1398 47.875H18.9688V38.5H9.59375V47.875H12.1297L13.5289 42.9758C13.5733 42.8205 13.6648 42.6828 13.7907 42.5816C13.9166 42.4805 14.0708 42.4209 14.232 42.4109C14.393 42.3979 14.554 42.4363 14.6919 42.5205C14.8297 42.6048 14.9373 42.7305 14.9992 42.8797L17.1398 47.875ZM22.6086 47.875H24.4375V38.5H20.5312V43.0312L22.6086 47.875ZM28.0773 47.875H29.9062V38.5H26V43.0312L28.0773 47.875ZM33.5461 47.875H35.375V38.5H31.4688V43.0312L33.5461 47.875ZM39.0148 47.875H40.8438V38.5H36.9375V43.0312L39.0148 47.875ZM35.6094 36.9375H36.1562H38.2656L36.1562 35.5312L34.8281 36.4164L35.6094 36.9375ZM33.4219 35.4781L35.375 34.1758V32.25H31.4688V34.1758L33.4219 35.4781ZM2.5625 30.6875H47.875V29.125H2.5625V30.6875Z" fill="#002959"/>
<path d="M49.2087 1.22882L49.2971 1.14043L49.2971 1.14043L49.2087 1.22882ZM49.2087 5.45868L49.2971 5.54707L49.2971 5.54706L49.2087 5.45868ZM38.5 5.6875V5.5625H38.375V5.6875H38.5ZM38.5 6.76719H38.375V6.84441L38.4441 6.87897L38.5 6.76719ZM41.1508 8.09375L41.0948 8.20553L41.1044 8.21033L41.1147 8.21343L41.1508 8.09375ZM47.0938 16.0625H47.2188V16.062L47.0938 16.0625ZM46.8649 18.7399L46.9533 18.8283H46.9533L46.8649 18.7399ZM43.9688 18.9688V18.8438H43.8438V18.9688H43.9688ZM43.7399 25.7712L43.8283 25.8596H43.8283L43.7399 25.7712ZM6.69757 25.7712L6.78596 25.6828L6.69757 25.7712ZM6.46875 18.9688H6.59375V18.8438H6.46875V18.9688ZM3.34375 16.0625L3.21875 16.062V16.0625H3.34375ZM9.28906 8.09531L9.32511 8.215L9.33545 8.21189L9.3451 8.20705L9.28906 8.09531ZM11.9375 6.76719L11.9935 6.87892L12.0625 6.84434V6.76719H11.9375ZM11.9375 5.6875H12.0625V5.5625H11.9375V5.6875ZM1.22882 5.45868L1.31721 5.37029H1.31721L1.22882 5.45868ZM1.22882 1.22882L1.31721 1.31721L1.22882 1.22882ZM18.1875 5.6875H18.3125V5.5625H18.1875V5.6875ZM18.1875 6.76719L18.2434 6.87899L18.3125 6.84444V6.76719H18.1875ZM13.5 5.6875V5.5625H13.375V5.6875H13.5ZM13.5 6.76719H13.375V6.84444L13.4441 6.87899L13.5 6.76719ZM15.8438 7.93906L15.7878 8.05087L15.8438 8.07882L15.8997 8.05087L15.8438 7.93906ZM37.7188 8.12344L37.7747 8.01164L37.7187 7.98367L37.6628 8.01165L37.7188 8.12344ZM40.0133 9.27109L40.1359 9.29554L40.1545 9.20198L40.0692 9.1593L40.0133 9.27109ZM36.4711 8.74766L36.4152 8.63587L36.2008 8.74309L36.4114 8.85749L36.4711 8.74766ZM38.9508 10.8023L38.8539 10.8814L38.9233 10.9664L39.0166 10.9086L38.9508 10.8023ZM39.6411 10.1471L39.7438 10.2184L39.6411 10.1471ZM32.7008 10.8023L32.6039 10.8814L32.6732 10.9663L32.7665 10.9087L32.7008 10.8023ZM30.2211 8.74766L30.1652 8.63585L29.9508 8.74306L30.1614 8.85749L30.2211 8.74766ZM33.3926 10.1471L33.2899 10.0758L33.3926 10.1471ZM33.7656 9.27031L33.8882 9.2948L33.9069 9.20121L33.8215 9.15852L33.7656 9.27031ZM31.4711 8.12266L31.527 8.01086L31.4711 7.9829L31.4152 8.01085L31.4711 8.12266ZM26.4508 10.8023L26.3539 10.8814L26.4232 10.9663L26.5165 10.9087L26.4508 10.8023ZM23.9711 8.74766L23.9152 8.63585L23.7008 8.74306L23.9114 8.85749L23.9711 8.74766ZM27.1426 10.1471L27.0399 10.0758L27.1426 10.1471ZM27.5156 9.27031L27.6382 9.2948L27.6569 9.20121L27.5715 9.15852L27.5156 9.27031ZM25.2211 8.12266L25.277 8.01086L25.2211 7.9829L25.1652 8.01085L25.2211 8.12266ZM20.2008 10.8023L20.1039 10.8814L20.1732 10.9663L20.2665 10.9087L20.2008 10.8023ZM17.7211 8.74766L17.6652 8.63585L17.4508 8.74306L17.6614 8.85749L17.7211 8.74766ZM20.8926 10.1471L20.7899 10.0758L20.8926 10.1471ZM21.2656 9.27031L21.3882 9.2948L21.4069 9.20121L21.3215 9.15852L21.2656 9.27031ZM18.9711 8.12266L19.027 8.01086L18.9711 7.9829L18.9152 8.01085L18.9711 8.12266ZM15.0164 9.27188L15.1389 9.29654L15.1578 9.20281L15.0723 9.16006L15.0164 9.27188ZM14.2035 10.6228L14.2827 10.7195L14.2035 10.6228ZM12.7188 8.12344L12.7746 8.01163L12.7188 7.98369L12.6629 8.01163L12.7188 8.12344ZM10.4211 9.27188L10.3652 9.16006L10.2797 9.20281L10.2986 9.29654L10.4211 9.27188ZM11.234 10.6228L11.1548 10.7195L11.234 10.6228ZM30.6875 6.76719L30.7434 6.87899L30.8125 6.84444V6.76719H30.6875ZM28.3438 7.93906L28.2878 8.05087L28.3438 8.07882L28.3997 8.05087L28.3438 7.93906ZM30.6875 5.6875H30.8125V5.5625H30.6875V5.6875ZM26 5.6875V5.5625H25.875V5.6875H26ZM26 6.76719H25.875V6.84444L25.9441 6.87899L26 6.76719ZM24.4375 6.76719L24.4934 6.87899L24.5625 6.84444V6.76719H24.4375ZM22.0938 7.93906L22.0378 8.05087L22.0938 8.07882L22.1497 8.05087L22.0938 7.93906ZM24.4375 5.6875H24.5625V5.5625H24.4375V5.6875ZM19.75 5.6875V5.5625H19.625V5.6875H19.75ZM19.75 6.76719H19.625V6.84444L19.6941 6.87899L19.75 6.76719ZM17.4062 15.0625V14.9375H17.2812V15.0625H17.4062ZM17.4062 24.4375V24.5625H17.5312V24.4375H17.4062ZM18.9688 15.0625H19.0938V14.9375H18.9688V15.0625ZM18.9688 17.4062H18.8438V17.5312H18.9688V17.4062ZM20.5312 17.4062V17.5312H20.6562V17.4062H20.5312ZM20.5312 16.0625H20.6562V16.0621L20.5312 16.0625ZM16.4789 9.87031L16.5293 9.75593L16.3976 9.69786L16.3586 9.83645L16.4789 9.87031ZM15.0772 11.9259L15.1527 12.0256L15.0772 11.9259ZM10.3603 11.9259L10.2848 12.0256L10.3603 11.9259ZM8.95859 9.87031L9.07892 9.83645L9.03991 9.69786L8.90817 9.75593L8.95859 9.87031ZM6.01506 12.3661L6.11965 12.4345L6.01506 12.3661ZM4.90625 16.0625L4.78125 16.0621V16.0625H4.90625ZM4.90625 17.4062H4.78125V17.5312H4.90625V17.4062ZM6.46875 17.4062V17.5312H6.59375V17.4062H6.46875ZM6.46875 15.0625V14.9375H6.34375V15.0625H6.46875ZM8.03125 15.0625H8.15625V14.9375H8.03125V15.0625ZM8.03125 24.4375H7.90625V24.5625H8.03125V24.4375ZM23.6562 15.0625V14.9375H23.5312V15.0625H23.6562ZM23.6562 24.4375V24.5625H23.7812V24.4375H23.6562ZM25.2188 15.0625H25.3438V14.9375H25.2188V15.0625ZM25.2188 17.4062H25.0938V17.5312H25.2188V17.4062ZM26.7812 17.4062V17.5312H26.9062V17.4062H26.7812ZM26.7812 16.0625H26.9062V16.0621L26.7812 16.0625ZM22.7336 9.86953L22.7841 9.75519L22.6525 9.69708L22.6133 9.83544L22.7336 9.86953ZM21.0781 12.0938L21.011 11.9883L20.9123 12.0512L20.9685 12.1538L21.0781 12.0938ZM22.0938 16.0625H22.2188V16.0625L22.0938 16.0625ZM18.9688 18.9688V18.8438H18.8438V18.9688H18.9688ZM18.9688 24.4375H18.8438V24.5625H18.9688V24.4375ZM29.9062 15.0625V14.9375H29.7812V15.0625H29.9062ZM29.9062 24.4375V24.5625H30.0312V24.4375H29.9062ZM31.4688 15.0625H31.5938V14.9375H31.4688V15.0625ZM31.4688 17.4062H31.3438V17.5312H31.4688V17.4062ZM33.0312 17.4062V17.5312H33.1562V17.4062H33.0312ZM33.0312 16.0625H33.1562V16.0621L33.0312 16.0625ZM28.9836 9.86953L29.0341 9.75519L28.9025 9.69708L28.8633 9.83544L28.9836 9.86953ZM27.3281 12.0938L27.261 11.9883L27.1623 12.0512L27.2185 12.1538L27.3281 12.0938ZM28.3438 16.0625H28.4688V16.0625L28.3438 16.0625ZM25.2188 18.9688V18.8438H25.0938V18.9688H25.2188ZM25.2188 24.4375H25.0938V24.5625H25.2188V24.4375ZM36.1562 15.0625V14.9375H36.0312V15.0625H36.1562ZM36.1562 24.4375V24.5625H36.2812V24.4375H36.1562ZM37.7188 15.0625H37.8438V14.9375H37.7188V15.0625ZM37.7188 17.4062H37.5938V17.5312H37.7188V17.4062ZM39.2812 17.4062V17.5312H39.4062V17.4062H39.2812ZM39.2812 16.0625H39.4062V16.0621L39.2812 16.0625ZM35.2336 9.86953L35.2841 9.75519L35.1525 9.69708L35.1133 9.83544L35.2336 9.86953ZM33.5781 12.0938L33.511 11.9883L33.4123 12.0512L33.4685 12.1538L33.5781 12.0938ZM34.5938 16.0625H34.7188V16.0625L34.5938 16.0625ZM34.3649 18.7399L34.4533 18.8283H34.4533L34.3649 18.7399ZM31.4688 18.9688V18.8438H31.3438V18.9688H31.4688ZM31.4688 24.4375H31.3438V24.5625H31.4688V24.4375ZM45.5312 16.0625H45.6562V16.0621L45.5312 16.0625ZM45.5312 17.4062V17.5312H45.6562V17.4062H45.5312ZM41.4836 9.86953L41.5341 9.75519L41.4025 9.69708L41.3633 9.83544L41.4836 9.86953ZM39.8281 12.0938L39.761 11.9883L39.6623 12.0512L39.7185 12.1538L39.8281 12.0938ZM40.8438 16.0625H40.9688V16.0625L40.8438 16.0625ZM40.6149 18.7399L40.7033 18.8283H40.7033L40.6149 18.7399ZM37.7188 18.9688V18.8438H37.5938V18.9688H37.7188ZM37.7188 24.4375H37.5938V24.5625H37.7188V24.4375ZM42.4062 24.4375V24.5625H42.5312V24.4375H42.4062ZM42.4062 15.0625V14.9375H42.2812V15.0625H42.4062ZM43.9688 15.0625H44.0938V14.9375H43.9688V15.0625ZM43.9688 17.4062H43.8438V17.5312H43.9688V17.4062ZM36.9375 6.76719L36.9934 6.87899L37.0625 6.84444V6.76719H36.9375ZM34.5938 7.93906L34.5378 8.05087L34.5938 8.07882L34.6497 8.05087L34.5938 7.93906ZM36.9375 5.6875H37.0625V5.5625H36.9375V5.6875ZM32.25 5.6875V5.5625H32.125V5.6875H32.25ZM32.25 6.76719H32.125V6.84444L32.1941 6.87899L32.25 6.76719ZM47.875 4.125V4.25H48V4.125H47.875ZM2.5625 4.125H2.4375V4.25H2.5625V4.125ZM47.875 2.5625H48V2.4375H47.875V2.5625ZM2.5625 2.5625V2.4375H2.4375V2.5625H2.5625ZM1.22882 27.7913L1.31721 27.8797L1.22882 27.7913ZM49.2087 27.7913L49.2971 27.7029H49.2971L49.2087 27.7913ZM49.2087 32.0212L49.2971 32.1096H49.2971L49.2087 32.0212ZM36.9375 32.25V32.125H36.8125V32.25H36.9375ZM36.9375 34.1758H36.8125V34.2427L36.8681 34.2798L36.9375 34.1758ZM41.0781 36.9375L41.0088 37.0415L41.0403 37.0625H41.0781V36.9375ZM42.1774 37.1663L42.2658 37.0779L42.2658 37.0779L42.1774 37.1663ZM42.1774 49.2087L42.2658 49.2971L42.2658 49.2971L42.1774 49.2087ZM38.5 49.4375L38.5 49.5625H38.5V49.4375ZM38.07 49.3085L38.1388 49.2041L38.07 49.3085ZM37.782 48.9641L37.6671 49.0133L37.6671 49.0133L37.782 48.9641ZM36.9375 46.9938L37.0524 46.9445L36.8125 46.9938H36.9375ZM36.7087 49.2087L36.7971 49.2971L36.7971 49.2971L36.7087 49.2087ZM33.0312 49.4375L33.0312 49.5625H33.0312V49.4375ZM32.6013 49.3085L32.6701 49.2041H32.6701L32.6013 49.3085ZM32.3133 48.9641L32.1984 49.0133L32.1984 49.0133L32.3133 48.9641ZM31.4688 46.9938L31.5836 46.9445L31.3438 46.9938H31.4688ZM31.2399 49.2087L31.3283 49.2971V49.2971L31.2399 49.2087ZM27.5625 49.4375L27.5625 49.5625H27.5625V49.4375ZM27.1325 49.3085L27.2013 49.2041H27.2013L27.1325 49.3085ZM26.8445 48.9641L26.7296 49.0133L26.7296 49.0133L26.8445 48.9641ZM26 46.9938L26.1149 46.9445L25.875 46.9938H26ZM25.7712 49.2087L25.8596 49.2971V49.2971L25.7712 49.2087ZM22.0938 49.4375L22.0937 49.5625H22.0938V49.4375ZM21.6638 49.3085L21.7326 49.2041H21.7326L21.6638 49.3085ZM21.3758 48.9641L21.2609 49.0133L21.2609 49.0133L21.3758 48.9641ZM20.5312 46.9938L20.6461 46.9445L20.4062 46.9938H20.5312ZM20.3024 49.2087L20.3908 49.2971V49.2971L20.3024 49.2087ZM16.625 49.4375L16.6248 49.5625H16.625V49.4375ZM16.1944 49.3072L16.1252 49.4113L16.1944 49.3072ZM15.907 48.9609L16.0221 48.9122L16.0219 48.9117L15.907 48.9609ZM14.4281 45.5117L14.543 45.4625L14.4044 45.1391L14.3079 45.4774L14.4281 45.5117ZM13.4703 48.8711L13.5905 48.9055L13.5905 48.9054L13.4703 48.8711ZM13.1894 49.2802L13.2646 49.38L13.1894 49.2802ZM12.7188 49.4375L12.7188 49.3125H12.7188V49.4375ZM8.26007 49.2087L8.17168 49.2971L8.17169 49.2971L8.26007 49.2087ZM8.26007 37.1663L8.17169 37.0779L8.17168 37.0779L8.26007 37.1663ZM9.35938 36.9375V37.0625H9.39724L9.42873 37.0415L9.35938 36.9375ZM13.5 34.1758L13.5694 34.2798L13.625 34.2427V34.1758H13.5ZM13.5 32.25H13.625V32.125H13.5V32.25ZM1.22882 32.0212L1.31721 31.9328L1.22882 32.0212ZM18.9688 32.25H19.0938V32.125H18.9688V32.25ZM18.9688 34.1758L19.0381 34.2798L19.0938 34.2427V34.1758H18.9688ZM15.0625 32.25V32.125H14.9375V32.25H15.0625ZM15.0625 34.1758H14.9375V34.2427L14.9932 34.2798L15.0625 34.1758ZM17.0156 35.4781L16.9463 35.5821L17.0156 35.6284L17.085 35.5821L17.0156 35.4781ZM19.2031 36.9375L19.1338 37.0415L19.1653 37.0625H19.2031V36.9375ZM21.8594 36.9375V37.0625H22.2722L21.9287 36.8335L21.8594 36.9375ZM19.75 35.5312L19.8193 35.4272L19.75 35.381L19.6807 35.4272L19.75 35.5312ZM18.4219 36.4164L18.3526 36.3124L18.1965 36.4164L18.3525 36.5204L18.4219 36.4164ZM24.6719 36.9375L24.6025 37.0415L24.634 37.0625H24.6719V36.9375ZM27.3281 36.9375V37.0625H27.741L27.3975 36.8335L27.3281 36.9375ZM25.2188 35.5312L25.2881 35.4272L25.2188 35.381L25.1494 35.4272L25.2188 35.5312ZM23.8906 36.4164L23.8213 36.3124L23.6653 36.4164L23.8213 36.5204L23.8906 36.4164ZM30.1406 36.9375L30.0713 37.0415L30.1028 37.0625H30.1406V36.9375ZM32.7969 36.9375V37.0625H33.2097L32.8662 36.8335L32.7969 36.9375ZM30.6875 35.5312L30.7568 35.4272L30.6875 35.381L30.6182 35.4272L30.6875 35.5312ZM29.3594 36.4164L29.2901 36.3124L29.134 36.4164L29.29 36.5204L29.3594 36.4164ZM29.9062 34.1758L29.9756 34.2798L30.0312 34.2427V34.1758H29.9062ZM27.9531 35.4781L27.8838 35.5821L27.9531 35.6284L28.0225 35.5821L27.9531 35.4781ZM29.9062 32.25H30.0312V32.125H29.9062V32.25ZM26 32.25V32.125H25.875V32.25H26ZM26 34.1758H25.875V34.2427L25.9307 34.2798L26 34.1758ZM24.4375 34.1758L24.5068 34.2798L24.5625 34.2427V34.1758H24.4375ZM22.4844 35.4781L22.415 35.5821L22.4844 35.6284L22.5537 35.5821L22.4844 35.4781ZM24.4375 32.25H24.5625V32.125H24.4375V32.25ZM20.5312 32.25V32.125H20.4062V32.25H20.5312ZM20.5312 34.1758H20.4062V34.2427L20.4619 34.2798L20.5312 34.1758ZM14.2812 35.5312L14.3506 35.4272L14.2812 35.381L14.2119 35.4272L14.2812 35.5312ZM16.3906 36.9375V37.0625H16.8035L16.46 36.8335L16.3906 36.9375ZM12.1719 36.9375L12.1025 36.8335L11.759 37.0625H12.1719V36.9375ZM18.9688 47.875V48H19.0938V47.875H18.9688ZM17.1398 47.875L17.025 47.9242L17.0574 48H17.1398V47.875ZM18.9688 38.5H19.0938V38.375H18.9688V38.5ZM9.59375 38.5V38.375H9.46875V38.5H9.59375ZM9.59375 47.875H9.46875V48H9.59375V47.875ZM12.1297 47.875V48H12.224L12.2499 47.9093L12.1297 47.875ZM13.5289 42.9758L13.4087 42.9414L13.4087 42.9415L13.5289 42.9758ZM13.7907 42.5816L13.7124 42.4842H13.7124L13.7907 42.5816ZM14.232 42.4109L14.2397 42.5357L14.2421 42.5355L14.232 42.4109ZM14.6919 42.5205L14.6267 42.6272L14.6919 42.5205ZM14.9992 42.8797L14.8838 42.9276L14.8843 42.9289L14.9992 42.8797ZM24.4375 47.875V48H24.5625V47.875H24.4375ZM22.6086 47.875L22.4937 47.9243L22.5262 48H22.6086V47.875ZM24.4375 38.5H24.5625V38.375H24.4375V38.5ZM20.5312 38.5V38.375H20.4062V38.5H20.5312ZM20.5312 43.0312H20.4062V43.0569L20.4164 43.0805L20.5312 43.0312ZM29.9062 47.875V48H30.0312V47.875H29.9062ZM28.0773 47.875L27.9625 47.9243L27.9949 48H28.0773V47.875ZM29.9062 38.5H30.0312V38.375H29.9062V38.5ZM26 38.5V38.375H25.875V38.5H26ZM26 43.0312H25.875V43.0569L25.8851 43.0805L26 43.0312ZM35.375 47.875V48H35.5V47.875H35.375ZM33.5461 47.875L33.4312 47.9243L33.4637 48H33.5461V47.875ZM35.375 38.5H35.5V38.375H35.375V38.5ZM31.4688 38.5V38.375H31.3438V38.5H31.4688ZM31.4688 43.0312H31.3438V43.0569L31.3539 43.0805L31.4688 43.0312ZM40.8438 47.875V48H40.9688V47.875H40.8438ZM39.0148 47.875L38.9 47.9243L38.9324 48H39.0148V47.875ZM40.8438 38.5H40.9688V38.375H40.8438V38.5ZM36.9375 38.5V38.375H36.8125V38.5H36.9375ZM36.9375 43.0312H36.8125V43.0569L36.8226 43.0805L36.9375 43.0312ZM35.6094 36.9375L35.54 37.0415L35.5715 37.0625H35.6094V36.9375ZM38.2656 36.9375V37.0625H38.6785L38.335 36.8335L38.2656 36.9375ZM36.1562 35.5312L36.2256 35.4272L36.1563 35.381L36.0869 35.4272L36.1562 35.5312ZM34.8281 36.4164L34.7588 36.3124L34.6028 36.4164L34.7588 36.5204L34.8281 36.4164ZM35.375 34.1758L35.4443 34.2798L35.5 34.2427V34.1758H35.375ZM33.4219 35.4781L33.3525 35.5821L33.4219 35.6284L33.4912 35.5821L33.4219 35.4781ZM35.375 32.25H35.5V32.125H35.375V32.25ZM31.4688 32.25V32.125H31.3438V32.25H31.4688ZM31.4688 34.1758H31.3438V34.2427L31.3994 34.2798L31.4688 34.1758ZM47.875 30.6875V30.8125H48V30.6875H47.875ZM2.5625 30.6875H2.4375V30.8125H2.5625V30.6875ZM47.875 29.125H48V29H47.875V29.125ZM2.5625 29.125V29H2.4375V29.125H2.5625ZM48.6562 0.875H1.78125V1.125H48.6562V0.875ZM49.2971 1.14043C49.1271 0.97048 48.8966 0.875 48.6562 0.875V1.125C48.8303 1.125 48.9972 1.19414 49.1203 1.31721L49.2971 1.14043ZM49.5625 1.78125C49.5625 1.5409 49.467 1.31039 49.2971 1.14043L49.1203 1.31721C49.2434 1.44028 49.3125 1.6072 49.3125 1.78125H49.5625ZM49.5625 4.90625V1.78125H49.3125V4.90625H49.5625ZM49.2971 5.54706C49.467 5.37711 49.5625 5.1466 49.5625 4.90625H49.3125C49.3125 5.0803 49.2434 5.24722 49.1203 5.37029L49.2971 5.54706ZM48.6562 5.8125C48.8966 5.8125 49.1271 5.71702 49.2971 5.54707L49.1203 5.37029C48.9972 5.49336 48.8303 5.5625 48.6562 5.5625V5.8125ZM38.5 5.8125H48.6562V5.5625H38.5V5.8125ZM38.625 6.76719V5.6875H38.375V6.76719H38.625ZM41.2067 7.98197L38.5559 6.6554L38.4441 6.87897L41.0948 8.20553L41.2067 7.98197ZM45.5366 11.0233C44.4507 9.56728 42.9259 8.49839 41.1869 7.97407L41.1147 8.21343C42.8025 8.72229 44.2823 9.75967 45.3362 11.1728L45.5366 11.0233ZM47.2188 16.062C47.2122 14.2457 46.6225 12.4794 45.5366 11.0233L45.3362 11.1728C46.3901 12.5859 46.9624 14.3001 46.9688 16.063L47.2188 16.062ZM47.2188 18.1875V16.0625H46.9688V18.1875H47.2188ZM46.9533 18.8283C47.1233 18.6584 47.2188 18.4279 47.2188 18.1875H46.9688C46.9688 18.3615 46.8996 18.5285 46.7765 18.6515L46.9533 18.8283ZM46.3125 19.0938C46.5529 19.0938 46.7834 18.9983 46.9533 18.8283L46.7765 18.6515C46.6535 18.7746 46.4865 18.8438 46.3125 18.8438V19.0938ZM43.9688 19.0938H46.3125V18.8438H43.9688V19.0938ZM44.0938 25.2188V18.9688H43.8438V25.2188H44.0938ZM43.8283 25.8596C43.9983 25.6896 44.0938 25.4591 44.0938 25.2188H43.8438C43.8438 25.3928 43.7746 25.5597 43.6515 25.6828L43.8283 25.8596ZM43.1875 26.125C43.4279 26.125 43.6584 26.0295 43.8283 25.8596L43.6515 25.6828C43.5285 25.8059 43.3615 25.875 43.1875 25.875V26.125ZM7.25 26.125H43.1875V25.875H7.25V26.125ZM6.60918 25.8596C6.77914 26.0295 7.00965 26.125 7.25 26.125V25.875C7.07595 25.875 6.90903 25.8059 6.78596 25.6828L6.60918 25.8596ZM6.34375 25.2188C6.34375 25.4591 6.43923 25.6896 6.60918 25.8596L6.78596 25.6828C6.66289 25.5597 6.59375 25.3928 6.59375 25.2188H6.34375ZM6.34375 18.9688V25.2188H6.59375V18.9688H6.34375ZM4.125 19.0938H6.46875V18.8438H4.125V19.0938ZM3.48418 18.8283C3.65414 18.9983 3.88465 19.0938 4.125 19.0938V18.8438C3.95095 18.8438 3.78403 18.7746 3.66096 18.6515L3.48418 18.8283ZM3.21875 18.1875C3.21875 18.4279 3.31423 18.6584 3.48418 18.8283L3.66096 18.6515C3.53789 18.5285 3.46875 18.3615 3.46875 18.1875H3.21875ZM3.21875 16.0625V18.1875H3.46875V16.0625H3.21875ZM4.90233 11.0237C3.81599 12.4795 3.22583 14.2456 3.21875 16.062L3.46875 16.063C3.47562 14.3001 4.04838 12.5861 5.10269 11.1732L4.90233 11.0237ZM9.25302 7.97562C7.51376 8.49944 5.98866 9.56791 4.90233 11.0237L5.10269 11.1732C6.157 9.76035 7.63713 8.72338 9.32511 8.215L9.25302 7.97562ZM11.8815 6.65545L9.23303 7.98357L9.3451 8.20705L11.9935 6.87892L11.8815 6.65545ZM11.8125 5.6875V6.76719H12.0625V5.6875H11.8125ZM1.78125 5.8125H11.9375V5.5625H1.78125V5.8125ZM1.14043 5.54707C1.31039 5.71702 1.5409 5.8125 1.78125 5.8125V5.5625C1.6072 5.5625 1.44028 5.49336 1.31721 5.37029L1.14043 5.54707ZM0.875 4.90625C0.875 5.1466 0.97048 5.37711 1.14043 5.54707L1.31721 5.37029C1.19414 5.24722 1.125 5.0803 1.125 4.90625H0.875ZM0.875 1.78125V4.90625H1.125V1.78125H0.875ZM1.14043 1.14043C0.97048 1.31039 0.875 1.5409 0.875 1.78125H1.125C1.125 1.6072 1.19414 1.44028 1.31721 1.31721L1.14043 1.14043ZM1.78125 0.875C1.5409 0.875 1.31039 0.97048 1.14043 1.14043L1.31721 1.31721C1.44028 1.19414 1.6072 1.125 1.78125 1.125V0.875ZM18.0625 5.6875V6.76719H18.3125V5.6875H18.0625ZM13.5 5.8125H18.1875V5.5625H13.5V5.8125ZM13.625 6.76719V5.6875H13.375V6.76719H13.625ZM15.8997 7.82726L13.5559 6.65538L13.4441 6.87899L15.7878 8.05087L15.8997 7.82726ZM18.1316 6.65538L15.7878 7.82726L15.8997 8.05087L18.2434 6.87899L18.1316 6.65538ZM37.6628 8.23523L39.9574 9.38289L40.0692 9.1593L37.7747 8.01164L37.6628 8.23523ZM36.527 8.85945L37.7747 8.23523L37.6628 8.01165L36.4152 8.63587L36.527 8.85945ZM39.0476 10.7233C38.3521 9.87124 37.4972 9.16288 36.5308 8.63782L36.4114 8.85749C37.3493 9.36705 38.179 10.0545 38.8539 10.8814L39.0476 10.7233ZM39.5384 10.0759C39.3654 10.3252 39.143 10.5363 38.885 10.6961L39.0166 10.9086C39.3037 10.7308 39.5513 10.4959 39.7438 10.2184L39.5384 10.0759ZM39.8907 9.24665C39.8313 9.54427 39.7114 9.82652 39.5384 10.0759L39.7438 10.2184C39.9364 9.94088 40.0698 9.62677 40.1359 9.29554L39.8907 9.24665ZM32.7976 10.7233C32.1021 9.87124 31.2472 9.16288 30.2808 8.63782L30.1614 8.85749C31.0993 9.36705 31.929 10.0545 32.6039 10.8814L32.7976 10.7233ZM33.2899 10.0758C33.1165 10.3252 32.8936 10.5364 32.6351 10.696L32.7665 10.9087C33.0542 10.7311 33.3022 10.4961 33.4952 10.2184L33.2899 10.0758ZM33.643 9.24583C33.5835 9.54377 33.4633 9.82627 33.2899 10.0758L33.4952 10.2184C33.6882 9.94078 33.822 9.62638 33.8882 9.2948L33.643 9.24583ZM31.4152 8.23445L33.7097 9.38211L33.8215 9.15852L31.527 8.01086L31.4152 8.23445ZM30.277 8.85946L31.527 8.23446L31.4152 8.01085L30.1652 8.63585L30.277 8.85946ZM26.5476 10.7233C25.8521 9.87124 24.9972 9.16288 24.0308 8.63782L23.9114 8.85749C24.8493 9.36705 25.679 10.0545 26.3539 10.8814L26.5476 10.7233ZM27.0399 10.0758C26.8665 10.3252 26.6436 10.5364 26.3851 10.696L26.5165 10.9087C26.8042 10.7311 27.0522 10.4961 27.2452 10.2184L27.0399 10.0758ZM27.393 9.24583C27.3335 9.54377 27.2133 9.82627 27.0399 10.0758L27.2452 10.2184C27.4382 9.94078 27.572 9.62638 27.6382 9.2948L27.393 9.24583ZM25.1652 8.23445L27.4597 9.38211L27.5715 9.15852L25.277 8.01086L25.1652 8.23445ZM24.027 8.85946L25.277 8.23446L25.1652 8.01085L23.9152 8.63585L24.027 8.85946ZM20.2976 10.7233C19.6021 9.87124 18.7472 9.16288 17.7808 8.63782L17.6614 8.85749C18.5993 9.36705 19.429 10.0545 20.1039 10.8814L20.2976 10.7233ZM20.7899 10.0758C20.6165 10.3252 20.3936 10.5364 20.1351 10.696L20.2665 10.9087C20.5542 10.7311 20.8022 10.4961 20.9952 10.2184L20.7899 10.0758ZM21.143 9.24583C21.0835 9.54377 20.9633 9.82627 20.7899 10.0758L20.9952 10.2184C21.1882 9.94078 21.322 9.62638 21.3882 9.2948L21.143 9.24583ZM18.9152 8.23445L21.2097 9.38211L21.3215 9.15852L19.027 8.01086L18.9152 8.23445ZM17.777 8.85946L19.027 8.23446L18.9152 8.01085L17.6652 8.63585L17.777 8.85946ZM14.8939 9.24721C14.7927 9.74957 14.5208 10.2014 14.1243 10.5261L14.2827 10.7195C14.7239 10.3583 15.0264 9.85551 15.1389 9.29654L14.8939 9.24721ZM12.6629 8.23525L14.9605 9.38369L15.0723 9.16006L12.7746 8.01163L12.6629 8.23525ZM10.477 9.38369L12.7746 8.23525L12.6629 8.01163L10.3652 9.16006L10.477 9.38369ZM11.3132 10.5261C10.9167 10.2014 10.6448 9.74957 10.5436 9.24721L10.2986 9.29654C10.4111 9.85551 10.7136 10.3583 11.1548 10.7195L11.3132 10.5261ZM12.7188 11.0281C12.2063 11.0281 11.7097 10.8507 11.3132 10.5261L11.1548 10.7195C11.596 11.0807 12.1486 11.2781 12.7188 11.2781V11.0281ZM14.1243 10.5261C13.7278 10.8507 13.2312 11.0281 12.7188 11.0281V11.2781C13.2889 11.2781 13.8415 11.0807 14.2827 10.7195L14.1243 10.5261ZM30.6316 6.65538L28.2878 7.82726L28.3997 8.05087L30.7434 6.87899L30.6316 6.65538ZM30.5625 5.6875V6.76719H30.8125V5.6875H30.5625ZM26 5.8125H30.6875V5.5625H26V5.8125ZM26.125 6.76719V5.6875H25.875V6.76719H26.125ZM28.3997 7.82726L26.0559 6.65538L25.9441 6.87899L28.2878 8.05087L28.3997 7.82726ZM24.3816 6.65538L22.0378 7.82726L22.1497 8.05087L24.4934 6.87899L24.3816 6.65538ZM24.3125 5.6875V6.76719H24.5625V5.6875H24.3125ZM19.75 5.8125H24.4375V5.5625H19.75V5.8125ZM19.875 6.76719V5.6875H19.625V6.76719H19.875ZM22.1497 7.82726L19.8059 6.65538L19.6941 6.87899L22.0378 8.05087L22.1497 7.82726ZM17.2812 15.0625V24.4375H17.5312V15.0625H17.2812ZM18.9688 14.9375H17.4062V15.1875H18.9688V14.9375ZM19.0938 17.4062V15.0625H18.8438V17.4062H19.0938ZM20.5312 17.2812H18.9688V17.5312H20.5312V17.2812ZM20.4062 16.0625V17.4062H20.6562V16.0625H20.4062ZM19.3178 12.4345C20.0238 13.5133 20.4019 14.7737 20.4062 16.0629L20.6562 16.0621C20.6517 14.7245 20.2595 13.4169 19.527 12.2976L19.3178 12.4345ZM16.4285 9.98469C17.6082 10.5048 18.6119 11.3557 19.3178 12.4345L19.527 12.2976C18.7946 11.1784 17.7533 10.2955 16.5293 9.75593L16.4285 9.98469ZM15.1527 12.0256C15.8532 11.495 16.3612 10.7501 16.5992 9.90418L16.3586 9.83645C16.1353 10.6299 15.6588 11.3286 15.0018 11.8263L15.1527 12.0256ZM12.7188 12.8433C13.5975 12.8433 14.4522 12.5561 15.1527 12.0256L15.0018 11.8263C14.3447 12.3239 13.543 12.5933 12.7188 12.5933V12.8433ZM10.2848 12.0256C10.9853 12.5561 11.84 12.8433 12.7188 12.8433V12.5933C11.8945 12.5933 11.0928 12.3239 10.4357 11.8263L10.2848 12.0256ZM8.83827 9.90418C9.07635 10.7501 9.5843 11.495 10.2848 12.0256L10.4357 11.8263C9.77869 11.3286 9.30223 10.6299 9.07892 9.83645L8.83827 9.90418ZM6.11965 12.4345C6.82565 11.3557 7.82929 10.5048 9.00902 9.98469L8.90817 9.75593C7.68421 10.2955 6.64293 11.1784 5.91047 12.2976L6.11965 12.4345ZM5.03125 16.0629C5.0356 14.7737 5.41366 13.5133 6.11965 12.4345L5.91047 12.2976C5.178 13.4169 4.78576 14.7245 4.78125 16.0621L5.03125 16.0629ZM5.03125 17.4062V16.0625H4.78125V17.4062H5.03125ZM6.46875 17.2812H4.90625V17.5312H6.46875V17.2812ZM6.34375 15.0625V17.4062H6.59375V15.0625H6.34375ZM8.03125 14.9375H6.46875V15.1875H8.03125V14.9375ZM8.15625 24.4375V15.0625H7.90625V24.4375H8.15625ZM17.4062 24.3125H8.03125V24.5625H17.4062V24.3125ZM23.5312 15.0625V24.4375H23.7812V15.0625H23.5312ZM25.2188 14.9375H23.6562V15.1875H25.2188V14.9375ZM25.3438 17.4062V15.0625H25.0938V17.4062H25.3438ZM26.7812 17.2812H25.2188V17.5312H26.7812V17.2812ZM26.6562 16.0625V17.4062H26.9062V16.0625H26.6562ZM25.57 12.4349C26.2751 13.5138 26.6524 14.774 26.6562 16.0629L26.9062 16.0621C26.9023 14.7249 26.5108 13.4175 25.7792 12.2982L25.57 12.4349ZM22.6831 9.98387C23.8621 10.5047 24.8648 11.356 25.57 12.4349L25.7792 12.2982C25.0477 11.1788 24.0073 10.2955 22.7841 9.75519L22.6831 9.98387ZM21.1453 12.1992C21.9769 11.6693 22.585 10.8524 22.8539 9.90362L22.6133 9.83544C22.3611 10.7252 21.7909 11.4914 21.011 11.9883L21.1453 12.1992ZM22.2188 16.0625C22.2184 14.6543 21.8638 13.2689 21.1878 12.0337L20.9685 12.1538C21.6244 13.3522 21.9684 14.6963 21.9688 16.0625L22.2188 16.0625ZM22.2188 18.1875V16.0625H21.9688V18.1875H22.2188ZM21.9533 18.8283C22.1233 18.6584 22.2188 18.4279 22.2188 18.1875H21.9688C21.9688 18.3615 21.8996 18.5285 21.7765 18.6515L21.9533 18.8283ZM21.3125 19.0938C21.5529 19.0938 21.7834 18.9983 21.9533 18.8283L21.7765 18.6515C21.6535 18.7746 21.4865 18.8438 21.3125 18.8438V19.0938ZM18.9688 19.0938H21.3125V18.8438H18.9688V19.0938ZM19.0938 24.4375V18.9688H18.8438V24.4375H19.0938ZM23.6562 24.3125H18.9688V24.5625H23.6562V24.3125ZM29.7812 15.0625V24.4375H30.0312V15.0625H29.7812ZM31.4688 14.9375H29.9062V15.1875H31.4688V14.9375ZM31.5938 17.4062V15.0625H31.3438V17.4062H31.5938ZM33.0312 17.2812H31.4688V17.5312H33.0312V17.2812ZM32.9062 16.0625V17.4062H33.1562V16.0625H32.9062ZM31.82 12.4349C32.5251 13.5138 32.9024 14.774 32.9062 16.0629L33.1562 16.0621C33.1523 14.7249 32.7608 13.4175 32.0292 12.2982L31.82 12.4349ZM28.9331 9.98387C30.1121 10.5047 31.1148 11.356 31.82 12.4349L32.0292 12.2982C31.2977 11.1788 30.2573 10.2955 29.0341 9.75519L28.9331 9.98387ZM27.3953 12.1992C28.2269 11.6693 28.835 10.8524 29.1039 9.90362L28.8633 9.83544C28.6111 10.7252 28.0409 11.4914 27.261 11.9883L27.3953 12.1992ZM28.4688 16.0625C28.4684 14.6543 28.1138 13.2689 27.4378 12.0337L27.2185 12.1538C27.8744 13.3522 28.2184 14.6963 28.2188 16.0625L28.4688 16.0625ZM28.4688 18.1875V16.0625H28.2188V18.1875H28.4688ZM28.2033 18.8283C28.3733 18.6584 28.4688 18.4279 28.4688 18.1875H28.2188C28.2188 18.3615 28.1496 18.5285 28.0265 18.6515L28.2033 18.8283ZM27.5625 19.0938C27.8029 19.0938 28.0334 18.9983 28.2033 18.8283L28.0265 18.6515C27.9035 18.7746 27.7365 18.8438 27.5625 18.8438V19.0938ZM25.2188 19.0938H27.5625V18.8438H25.2188V19.0938ZM25.3438 24.4375V18.9688H25.0938V24.4375H25.3438ZM29.9062 24.3125H25.2188V24.5625H29.9062V24.3125ZM36.0312 15.0625V24.4375H36.2812V15.0625H36.0312ZM37.7188 14.9375H36.1562V15.1875H37.7188V14.9375ZM37.8438 17.4062V15.0625H37.5938V17.4062H37.8438ZM39.2812 17.2812H37.7188V17.5312H39.2812V17.2812ZM39.1562 16.0625V17.4062H39.4062V16.0625H39.1562ZM38.07 12.4349C38.7751 13.5138 39.1524 14.774 39.1562 16.0629L39.4062 16.0621C39.4023 14.7249 39.0108 13.4175 38.2792 12.2982L38.07 12.4349ZM35.1831 9.98387C36.3621 10.5047 37.3648 11.356 38.07 12.4349L38.2792 12.2982C37.5477 11.1788 36.5073 10.2955 35.2841 9.75519L35.1831 9.98387ZM33.6453 12.1992C34.4769 11.6693 35.085 10.8524 35.3539 9.90362L35.1133 9.83544C34.8611 10.7252 34.2909 11.4914 33.511 11.9883L33.6453 12.1992ZM34.7188 16.0625C34.7184 14.6544 34.3638 13.2689 33.6878 12.0337L33.4685 12.1538C34.1244 13.3522 34.4684 14.6963 34.4688 16.0625L34.7188 16.0625ZM34.7188 18.1875V16.0625H34.4688V18.1875H34.7188ZM34.4533 18.8283C34.6233 18.6584 34.7188 18.4279 34.7188 18.1875H34.4688C34.4688 18.3615 34.3996 18.5285 34.2765 18.6515L34.4533 18.8283ZM33.8125 19.0938C34.0529 19.0938 34.2834 18.9983 34.4533 18.8283L34.2765 18.6515C34.1535 18.7746 33.9865 18.8438 33.8125 18.8438V19.0938ZM31.4688 19.0938H33.8125V18.8438H31.4688V19.0938ZM31.5938 24.4375V18.9688H31.3438V24.4375H31.5938ZM36.1562 24.3125H31.4688V24.5625H36.1562V24.3125ZM45.4062 16.0625V17.4062H45.6562V16.0625H45.4062ZM44.32 12.4349C45.0251 13.5138 45.4024 14.774 45.4062 16.0629L45.6562 16.0621C45.6523 14.7249 45.2608 13.4175 44.5292 12.2982L44.32 12.4349ZM41.4331 9.98387C42.6121 10.5047 43.6148 11.356 44.32 12.4349L44.5292 12.2982C43.7977 11.1788 42.7573 10.2955 41.5341 9.75519L41.4331 9.98387ZM39.8953 12.1992C40.7269 11.6693 41.335 10.8524 41.6039 9.90362L41.3633 9.83544C41.1111 10.7252 40.5409 11.4914 39.761 11.9883L39.8953 12.1992ZM40.9688 16.0625C40.9684 14.6544 40.6138 13.2689 39.9378 12.0337L39.7185 12.1538C40.3744 13.3522 40.7184 14.6963 40.7188 16.0625L40.9688 16.0625ZM40.9688 18.1875V16.0625H40.7188V18.1875H40.9688ZM40.7033 18.8283C40.8733 18.6584 40.9688 18.4279 40.9688 18.1875H40.7188C40.7188 18.3615 40.6496 18.5285 40.5265 18.6515L40.7033 18.8283ZM40.0625 19.0938C40.3029 19.0938 40.5334 18.9983 40.7033 18.8283L40.5265 18.6515C40.4035 18.7746 40.2365 18.8438 40.0625 18.8438V19.0938ZM37.7188 19.0938H40.0625V18.8438H37.7188V19.0938ZM37.8438 24.4375V18.9688H37.5938V24.4375H37.8438ZM42.4062 24.3125H37.7188V24.5625H42.4062V24.3125ZM42.2812 15.0625V24.4375H42.5312V15.0625H42.2812ZM43.9688 14.9375H42.4062V15.1875H43.9688V14.9375ZM44.0938 17.4062V15.0625H43.8438V17.4062H44.0938ZM45.5312 17.2812H43.9688V17.5312H45.5312V17.2812ZM36.8816 6.65538L34.5378 7.82726L34.6497 8.05087L36.9934 6.87899L36.8816 6.65538ZM36.8125 5.6875V6.76719H37.0625V5.6875H36.8125ZM32.25 5.8125H36.9375V5.5625H32.25V5.8125ZM32.375 6.76719V5.6875H32.125V6.76719H32.375ZM34.6497 7.82726L32.3059 6.65538L32.1941 6.87899L34.5378 8.05087L34.6497 7.82726ZM47.875 4H2.5625V4.25H47.875V4ZM47.75 2.5625V4.125H48V2.5625H47.75ZM2.5625 2.6875H47.875V2.4375H2.5625V2.6875ZM2.6875 4.125V2.5625H2.4375V4.125H2.6875ZM1.78125 27.4375C1.5409 27.4375 1.31039 27.533 1.14043 27.7029L1.31721 27.8797C1.44028 27.7566 1.6072 27.6875 1.78125 27.6875V27.4375ZM48.6562 27.4375H1.78125V27.6875H48.6562V27.4375ZM49.2971 27.7029C49.1271 27.533 48.8966 27.4375 48.6562 27.4375V27.6875C48.8303 27.6875 48.9972 27.7566 49.1203 27.8797L49.2971 27.7029ZM49.5625 28.3438C49.5625 28.1034 49.467 27.8729 49.2971 27.7029L49.1203 27.8797C49.2434 28.0028 49.3125 28.1697 49.3125 28.3438H49.5625ZM49.5625 31.4688V28.3438H49.3125V31.4688H49.5625ZM49.2971 32.1096C49.467 31.9396 49.5625 31.7091 49.5625 31.4688H49.3125C49.3125 31.6428 49.2434 31.8097 49.1203 31.9328L49.2971 32.1096ZM48.6562 32.375C48.8966 32.375 49.1271 32.2795 49.2971 32.1096L49.1203 31.9328C48.9972 32.0559 48.8303 32.125 48.6562 32.125V32.375ZM36.9375 32.375H48.6562V32.125H36.9375V32.375ZM37.0625 34.1758V32.25H36.8125V34.1758H37.0625ZM41.1475 36.8335L37.0069 34.0718L36.8681 34.2798L41.0088 37.0415L41.1475 36.8335ZM41.625 36.8125H41.0781V37.0625H41.625V36.8125ZM42.2658 37.0779C42.0959 36.908 41.8654 36.8125 41.625 36.8125V37.0625C41.799 37.0625 41.966 37.1316 42.089 37.2547L42.2658 37.0779ZM42.5312 37.7188C42.5312 37.4784 42.4358 37.2479 42.2658 37.0779L42.089 37.2547C42.2121 37.3778 42.2812 37.5447 42.2812 37.7188H42.5312ZM42.5312 48.6562V37.7188H42.2812V48.6562H42.5312ZM42.2658 49.2971C42.4358 49.1271 42.5312 48.8966 42.5312 48.6562H42.2812C42.2812 48.8303 42.2121 48.9972 42.089 49.1203L42.2658 49.2971ZM41.625 49.5625C41.8654 49.5625 42.0959 49.467 42.2658 49.2971L42.089 49.1203C41.966 49.2434 41.799 49.3125 41.625 49.3125V49.5625ZM38.5 49.5625H41.625V49.3125H38.5V49.5625ZM38.0012 49.4128C38.1492 49.5104 38.3227 49.5625 38.5 49.5625L38.5 49.3125C38.3716 49.3125 38.246 49.2748 38.1388 49.2041L38.0012 49.4128ZM37.6671 49.0133C37.737 49.1763 37.8532 49.3152 38.0012 49.4128L38.1388 49.2041C38.0316 49.1334 37.9475 49.0328 37.8969 48.9148L37.6671 49.0133ZM36.8226 47.043L37.6671 49.0133L37.8969 48.9148L37.0524 46.9445L36.8226 47.043ZM37.0625 48.6562V46.9938H36.8125V48.6562H37.0625ZM36.7971 49.2971C36.967 49.1271 37.0625 48.8966 37.0625 48.6562H36.8125C36.8125 48.8303 36.7434 48.9972 36.6203 49.1203L36.7971 49.2971ZM36.1562 49.5625C36.3966 49.5625 36.6271 49.467 36.7971 49.2971L36.6203 49.1203C36.4972 49.2434 36.3303 49.3125 36.1562 49.3125V49.5625ZM33.0312 49.5625H36.1562V49.3125H33.0312V49.5625ZM32.5324 49.4128C32.6805 49.5104 32.8539 49.5625 33.0312 49.5625L33.0313 49.3125C32.9029 49.3125 32.7773 49.2748 32.6701 49.2041L32.5324 49.4128ZM32.1984 49.0133C32.2683 49.1763 32.3844 49.3152 32.5324 49.4128L32.6701 49.2041C32.5629 49.1334 32.4788 49.0328 32.4282 48.9148L32.1984 49.0133ZM31.3539 47.043L32.1984 49.0133L32.4282 48.9148L31.5836 46.9445L31.3539 47.043ZM31.5938 48.6562V46.9938H31.3438V48.6562H31.5938ZM31.3283 49.2971C31.4983 49.1271 31.5938 48.8966 31.5938 48.6562H31.3438C31.3438 48.8303 31.2746 48.9972 31.1515 49.1203L31.3283 49.2971ZM30.6875 49.5625C30.9279 49.5625 31.1584 49.467 31.3283 49.2971L31.1515 49.1203C31.0285 49.2434 30.8615 49.3125 30.6875 49.3125V49.5625ZM27.5625 49.5625H30.6875V49.3125H27.5625V49.5625ZM27.0637 49.4128C27.2117 49.5104 27.3852 49.5625 27.5625 49.5625L27.5625 49.3125C27.4341 49.3125 27.3085 49.2748 27.2013 49.2041L27.0637 49.4128ZM26.7296 49.0133C26.7995 49.1763 26.9157 49.3152 27.0637 49.4128L27.2013 49.2041C27.0941 49.1334 27.01 49.0328 26.9594 48.9148L26.7296 49.0133ZM25.8851 47.043L26.7296 49.0133L26.9594 48.9148L26.1149 46.9445L25.8851 47.043ZM26.125 48.6562V46.9938H25.875V48.6562H26.125ZM25.8596 49.2971C26.0295 49.1271 26.125 48.8966 26.125 48.6562H25.875C25.875 48.8303 25.8059 48.9972 25.6828 49.1203L25.8596 49.2971ZM25.2188 49.5625C25.4591 49.5625 25.6896 49.467 25.8596 49.2971L25.6828 49.1203C25.5597 49.2434 25.3928 49.3125 25.2188 49.3125V49.5625ZM22.0938 49.5625H25.2188V49.3125H22.0938V49.5625ZM21.5949 49.4128C21.743 49.5104 21.9164 49.5625 22.0937 49.5625L22.0938 49.3125C21.9654 49.3125 21.8398 49.2748 21.7326 49.2041L21.5949 49.4128ZM21.2609 49.0133C21.3308 49.1763 21.4469 49.3152 21.5949 49.4128L21.7326 49.2041C21.6254 49.1334 21.5413 49.0328 21.4907 48.9148L21.2609 49.0133ZM20.4164 47.043L21.2609 49.0133L21.4907 48.9148L20.6461 46.9445L20.4164 47.043ZM20.6562 48.6562V46.9938H20.4062V48.6562H20.6562ZM20.3908 49.2971C20.5608 49.1271 20.6562 48.8966 20.6562 48.6562H20.4062C20.4062 48.8303 20.3371 48.9972 20.214 49.1203L20.3908 49.2971ZM19.75 49.5625C19.9904 49.5625 20.2209 49.467 20.3908 49.2971L20.214 49.1203C20.091 49.2434 19.924 49.3125 19.75 49.3125V49.5625ZM16.625 49.5625H19.75V49.3125H16.625V49.5625ZM16.1252 49.4113C16.2733 49.5096 16.447 49.5622 16.6248 49.5625L16.6252 49.3125C16.4965 49.3123 16.3707 49.2742 16.2635 49.203L16.1252 49.4113ZM15.7919 49.0097C15.8612 49.1733 15.9772 49.313 16.1252 49.4113L16.2635 49.203C16.1563 49.1318 16.0723 49.0307 16.0221 48.9122L15.7919 49.0097ZM14.3132 45.561L15.7921 49.0102L16.0219 48.9117L14.543 45.4625L14.3132 45.561ZM13.5905 48.9054L14.5483 45.546L14.3079 45.4774L13.3501 48.8368L13.5905 48.9054ZM13.2646 49.38C13.4219 49.2614 13.5363 49.0949 13.5905 48.9055L13.3501 48.8367C13.3109 48.9739 13.2281 49.0945 13.1142 49.1803L13.2646 49.38ZM12.7187 49.5625C12.9157 49.5626 13.1073 49.4985 13.2646 49.38L13.1142 49.1803C13.0002 49.2662 12.8615 49.3126 12.7188 49.3125L12.7187 49.5625ZM8.8125 49.5625H12.7188V49.3125H8.8125V49.5625ZM8.17169 49.2971C8.34164 49.467 8.57215 49.5625 8.8125 49.5625V49.3125C8.63845 49.3125 8.47153 49.2434 8.34846 49.1203L8.17169 49.2971ZM7.90625 48.6562C7.90625 48.8966 8.00173 49.1271 8.17168 49.2971L8.34846 49.1203C8.22539 48.9972 8.15625 48.8303 8.15625 48.6562H7.90625ZM7.90625 37.7188V48.6562H8.15625V37.7188H7.90625ZM8.17168 37.0779C8.00173 37.2479 7.90625 37.4784 7.90625 37.7188H8.15625C8.15625 37.5447 8.22539 37.3778 8.34846 37.2547L8.17168 37.0779ZM8.8125 36.8125C8.57215 36.8125 8.34164 36.908 8.17169 37.0779L8.34846 37.2547C8.47153 37.1316 8.63845 37.0625 8.8125 37.0625V36.8125ZM9.35938 36.8125H8.8125V37.0625H9.35938V36.8125ZM13.4306 34.0718L9.29002 36.8335L9.42873 37.0415L13.5694 34.2798L13.4306 34.0718ZM13.375 32.25V34.1758H13.625V32.25H13.375ZM1.78125 32.375H13.5V32.125H1.78125V32.375ZM1.14043 32.1096C1.31039 32.2795 1.5409 32.375 1.78125 32.375V32.125C1.6072 32.125 1.44028 32.0559 1.31721 31.9328L1.14043 32.1096ZM0.875 31.4688C0.875 31.7091 0.97048 31.9396 1.14043 32.1096L1.31721 31.9328C1.19414 31.8097 1.125 31.6428 1.125 31.4688H0.875ZM0.875 28.3438V31.4688H1.125V28.3438H0.875ZM1.14043 27.7029C0.97048 27.8729 0.875 28.1034 0.875 28.3438H1.125C1.125 28.1697 1.19414 28.0028 1.31721 27.8797L1.14043 27.7029ZM18.8438 32.25V34.1758H19.0938V32.25H18.8438ZM15.0625 32.375H18.9688V32.125H15.0625V32.375ZM15.1875 34.1758V32.25H14.9375V34.1758H15.1875ZM17.085 35.3741L15.1318 34.0718L14.9932 34.2798L16.9463 35.5821L17.085 35.3741ZM18.8994 34.0718L16.9463 35.3741L17.085 35.5821L19.0381 34.2798L18.8994 34.0718ZM19.75 36.8125H19.2031V37.0625H19.75V36.8125ZM21.8594 36.8125H19.75V37.0625H21.8594V36.8125ZM19.6807 35.6353L21.79 37.0415L21.9287 36.8335L19.8193 35.4272L19.6807 35.6353ZM18.4912 36.5204L19.8193 35.6353L19.6807 35.4272L18.3526 36.3124L18.4912 36.5204ZM19.2725 36.8335L18.4912 36.3124L18.3525 36.5204L19.1338 37.0415L19.2725 36.8335ZM25.2188 36.8125H24.6719V37.0625H25.2188V36.8125ZM27.3281 36.8125H25.2188V37.0625H27.3281V36.8125ZM25.1494 35.6353L27.2588 37.0415L27.3975 36.8335L25.2881 35.4272L25.1494 35.6353ZM23.9599 36.5204L25.2881 35.6353L25.1494 35.4272L23.8213 36.3124L23.9599 36.5204ZM24.7412 36.8335L23.96 36.3124L23.8213 36.5204L24.6025 37.0415L24.7412 36.8335ZM30.6875 36.8125H30.1406V37.0625H30.6875V36.8125ZM32.7969 36.8125H30.6875V37.0625H32.7969V36.8125ZM30.6182 35.6353L32.7275 37.0415L32.8662 36.8335L30.7568 35.4272L30.6182 35.6353ZM29.4287 36.5204L30.7568 35.6353L30.6182 35.4272L29.2901 36.3124L29.4287 36.5204ZM30.21 36.8335L29.4287 36.3124L29.29 36.5204L30.0713 37.0415L30.21 36.8335ZM29.8369 34.0718L27.8838 35.3741L28.0225 35.5821L29.9756 34.2798L29.8369 34.0718ZM29.7812 32.25V34.1758H30.0312V32.25H29.7812ZM26 32.375H29.9062V32.125H26V32.375ZM26.125 34.1758V32.25H25.875V34.1758H26.125ZM28.0225 35.3741L26.0693 34.0718L25.9307 34.2798L27.8838 35.5821L28.0225 35.3741ZM24.3682 34.0718L22.415 35.3741L22.5537 35.5821L24.5068 34.2798L24.3682 34.0718ZM24.3125 32.25V34.1758H24.5625V32.25H24.3125ZM20.5312 32.375H24.4375V32.125H20.5312V32.375ZM20.6562 34.1758V32.25H20.4062V34.1758H20.6562ZM22.5537 35.3741L20.6006 34.0718L20.4619 34.2798L22.415 35.5821L22.5537 35.3741ZM14.2119 35.6353L16.3213 37.0415L16.46 36.8335L14.3506 35.4272L14.2119 35.6353ZM12.2412 37.0415L14.3506 35.6353L14.2119 35.4272L12.1025 36.8335L12.2412 37.0415ZM16.3906 36.8125H12.1719V37.0625H16.3906V36.8125ZM18.9688 47.75H17.1398V48H18.9688V47.75ZM18.8438 38.5V47.875H19.0938V38.5H18.8438ZM9.59375 38.625H18.9688V38.375H9.59375V38.625ZM9.71875 47.875V38.5H9.46875V47.875H9.71875ZM12.1297 47.75H9.59375V48H12.1297V47.75ZM13.4087 42.9415L12.0095 47.8407L12.2499 47.9093L13.6491 43.0101L13.4087 42.9415ZM13.7124 42.4842C13.5664 42.6015 13.4603 42.7613 13.4087 42.9414L13.6491 43.0102C13.6864 42.8797 13.7632 42.7641 13.869 42.6791L13.7124 42.4842ZM14.2244 42.2862C14.0373 42.2977 13.8585 42.3669 13.7124 42.4842L13.869 42.6791C13.9748 42.5941 14.1043 42.544 14.2397 42.5357L14.2244 42.2862ZM14.757 42.4139C14.5966 42.3159 14.4093 42.2712 14.222 42.2863L14.2421 42.5355C14.3768 42.5247 14.5114 42.5568 14.6267 42.6272L14.757 42.4139ZM15.1147 42.8318C15.0426 42.6582 14.9174 42.5119 14.757 42.4139L14.6267 42.6272C14.742 42.6976 14.832 42.8028 14.8838 42.9276L15.1147 42.8318ZM17.2547 47.8258L15.1141 42.8305L14.8843 42.9289L17.025 47.9242L17.2547 47.8258ZM24.4375 47.75H22.6086V48H24.4375V47.75ZM24.3125 38.5V47.875H24.5625V38.5H24.3125ZM20.5312 38.625H24.4375V38.375H20.5312V38.625ZM20.6562 43.0312V38.5H20.4062V43.0312H20.6562ZM22.7235 47.8257L20.6461 42.982L20.4164 43.0805L22.4937 47.9243L22.7235 47.8257ZM29.9062 47.75H28.0773V48H29.9062V47.75ZM29.7812 38.5V47.875H30.0312V38.5H29.7812ZM26 38.625H29.9062V38.375H26V38.625ZM26.125 43.0312V38.5H25.875V43.0312H26.125ZM28.1922 47.8257L26.1149 42.982L25.8851 43.0805L27.9625 47.9243L28.1922 47.8257ZM35.375 47.75H33.5461V48H35.375V47.75ZM35.25 38.5V47.875H35.5V38.5H35.25ZM31.4688 38.625H35.375V38.375H31.4688V38.625ZM31.5938 43.0312V38.5H31.3438V43.0312H31.5938ZM33.661 47.8257L31.5836 42.982L31.3539 43.0805L33.4312 47.9243L33.661 47.8257ZM40.8438 47.75H39.0148V48H40.8438V47.75ZM40.7188 38.5V47.875H40.9688V38.5H40.7188ZM36.9375 38.625H40.8438V38.375H36.9375V38.625ZM37.0625 43.0312V38.5H36.8125V43.0312H37.0625ZM39.1297 47.8257L37.0524 42.982L36.8226 43.0805L38.9 47.9243L39.1297 47.8257ZM36.1562 36.8125H35.6094V37.0625H36.1562V36.8125ZM38.2656 36.8125H36.1562V37.0625H38.2656V36.8125ZM36.0869 35.6353L38.1963 37.0415L38.335 36.8335L36.2256 35.4272L36.0869 35.6353ZM34.8974 36.5204L36.2256 35.6353L36.0869 35.4272L34.7588 36.3124L34.8974 36.5204ZM35.6787 36.8335L34.8975 36.3124L34.7588 36.5204L35.54 37.0415L35.6787 36.8335ZM35.3057 34.0718L33.3525 35.3741L33.4912 35.5821L35.4443 34.2798L35.3057 34.0718ZM35.25 32.25V34.1758H35.5V32.25H35.25ZM31.4688 32.375H35.375V32.125H31.4688V32.375ZM31.5938 34.1758V32.25H31.3438V34.1758H31.5938ZM33.4912 35.3741L31.5381 34.0718L31.3994 34.2798L33.3525 35.5821L33.4912 35.3741ZM47.875 30.5625H2.5625V30.8125H47.875V30.5625ZM47.75 29.125V30.6875H48V29.125H47.75ZM2.5625 29.25H47.875V29H2.5625V29.25ZM2.6875 30.6875V29.125H2.4375V30.6875H2.6875Z" fill="white"/>
<g style="mix-blend-mode:multiply" opacity="0.2">
<circle cx="25" cy="25" r="25" fill="#FF8143"/>
</g>
</svg>
