<svg width="16" height="16" viewBox="0 0 16 16" fill="none" xmlns="http://www.w3.org/2000/svg">
<path d="M15.5655 4.79655L4.79645 15.5656C4.21842 16.1443 3.27595 16.1453 2.69636 15.5656L0.434942 13.3042C-0.144981 12.7243 -0.144981 11.7841 0.434942 11.2041L1.0809 10.5582C1.18504 10.454 1.35388 10.454 1.45805 10.5582L2.44619 11.5463C2.54946 11.6496 2.71906 11.66 2.82537 11.5599C2.93537 11.4564 2.93734 11.2832 2.83124 11.1771L1.8352 10.1811C1.73106 10.0769 1.73106 9.90804 1.8352 9.80391L3.26165 8.37745C3.36579 8.27331 3.53466 8.27331 3.6388 8.37745L5.17329 9.91195C5.22536 9.96405 5.2936 9.99005 5.36187 9.99005C5.59724 9.99005 5.71898 9.7033 5.55044 9.5348L4.01595 8.0003C3.91181 7.89617 3.91181 7.72729 4.01595 7.62316L5.4424 6.1967C5.54654 6.09256 5.71538 6.09256 5.81955 6.1967L6.81559 7.19274C6.86766 7.24481 6.9359 7.27084 7.00417 7.27084C7.23954 7.27084 7.36128 6.9841 7.19274 6.81559L6.1967 5.81955C6.09256 5.71541 6.09256 5.54654 6.1967 5.4424L7.62316 4.01595C7.72729 3.91181 7.89613 3.91181 8.0003 4.01595L9.5348 5.55044C9.58687 5.60251 9.6551 5.62854 9.72337 5.62854C9.95875 5.62854 10.0805 5.3418 9.91195 5.17329L8.37745 3.6388C8.27331 3.53466 8.27331 3.36579 8.37745 3.26165L9.80391 1.8352C9.90804 1.73106 10.0769 1.73106 10.1811 1.8352L11.1771 2.83124C11.2292 2.8833 11.2974 2.90934 11.3657 2.90934C11.601 2.90934 11.7228 2.62259 11.5542 2.45409L10.5582 1.45805C10.4541 1.35391 10.4541 1.18504 10.5582 1.0809L11.2042 0.434942C11.7841 -0.144981 12.7243 -0.144981 13.3042 0.434942L15.5657 2.69636C16.1446 3.27549 16.1446 4.21752 15.5655 4.79655V4.79655Z" fill="#002959"/>
</svg>
